LinkedIn
…
Lets see the top 50 companies to work for from our sample.

(top.50.companies <- df %>% 
  group_by(companyName) %>% 
  count() %>% 
  arrange(desc(n)) %>% 
  head(50)
)

## # A tibble: 50 x 2
## # Groups:   companyName [50]
##    companyName                 n
##    <chr>                   <int>
##  1 Telstra                   683
##  2 National Australia Bank   484
##  3 Commonwealth Bank         433
##  4 IBM                       327
##  5 ANZ                       253
##  6 Monash University         235
##  7 UNSW                      216
##  8 Optus                     208
##  9 University of Melbourne   200
## 10 Westpac                   191
## # ... with 40 more rows
…
